{
  "$schema": "http://json-schema.org/draft-07/schema#",
  "$id": "http://calibrate.at/schema/process/color_conversion.json",
  "title": "Process color conversion definition",
  "definitions": {
    "source":{
      "type":"string",
      "enum": ["OI","frompart"]
    },
    "processVars":{
      "type":"object",
      "properties": {
        "do":{
          "type":"boolean",
          "default":false
        },
        "keepblack":{
          "type":"boolean",
          "default":false
        }, 
        "rgb2cmykUseDL":{
          "type":"boolean",
          "default":false
        }, 
        "cmyk2":{
          "$ref":"#/definitions/source"
        },
        "cmyk1":{
          "$ref":"#/definitions/source"
        },
        "rgb2cmyk":{
          "type":"boolean",
          "default":false
        }, 
        "cmyk2cmyk":{
          "type":"boolean",
          "default":false
        }, 
        "spot2cmyk":{
          "$ref":"#/definitions/source"
        }, 
        "all2gray": {
          "$ref":"#/definitions/source"
        }, 
        "even2gray":{
          "$ref":"#/definitions/source"
        },
        "smartlink":{
          "type":"boolean",
          "default":false
        },  
        "engine":{
          "type":"string",
          "enum":["pdftoolbox"]
        },
        "defaultOI":{
          "type":"string",
          "enum":["iso coated v2 (eci)", "iso coated v2 300% (eci)"]
        }, 
        "setdefaultifnooi":{
          "type":"boolean",
          "default":false
        },  
        "excludespot":{
          "type":"array",
          "items": {
            "type":"string"
          }
        },
        "reduceToTAC":{
          "type":"boolean",
          "default":false
        },  "replaceUnknownOI":{
          "type":"boolean",
          "default":false
        },
        "blackcmyk2solidblack":{
          "type":"boolean",
          "default":false
        },
        "saveink":{
          "type":"boolean",
          "default":false
        },
        "forcedefaultoi":{
          "type":"boolean",
          "default":false
        },
        "template":{
          "type":"array",
          "items": {
            "type":"string"
          }
        }
      },
      "required":[ "do" ]
    }
  },
  "type":"object",
  "properties": {
    "type":{
      "type":"string",
      "enum": [ "colorconversion" ]
    },
    "processVars":{
      "$ref": "#/definitions/processVars"
    }   
  },
  "required":[ "type"]
}